{
  "project_info": {
    "project_number": "298032037028",
    "firebase_url": "https://taxi-deals-swiss-afc07.firebaseio.com",
    "project_id": "taxi-deals-swiss-afc07",
    "storage_bucket": "taxi-deals-swiss-afc07.appspot.com"
  },
  "client": [
    {
      "client_info": {
        "mobilesdk_app_id": "1:298032037028:android:ac798c91fcae974c",
        "android_client_info": {
          "package_name": "com.dt.admin.newdriver"
        }
      },
      "oauth_client": [
        {
          "client_id": "298032037028-5549un8nsbddj28u5t843i9i0pt4q4ps.apps.googleusercontent.com",
          "client_type": 1,
          "android_info": {
            "package_name": "com.dt.admin.newdriver",
            "certificate_hash": "b674a1b628d9c7a9b91d0a69794d39038a3cb00f"
          }
        },
        {
          "client_id": "298032037028-uh0qifukemqe87n0ji8jj6ce07t510fj.apps.googleusercontent.com",
          "client_type": 3
        }
      ],
      "api_key": [
        {
          "current_key": "AIzaSyBuNUkxkA-MADNP2Rw7zr2DGm1LhlvRAJ0"
        },
        {
          "current_key": "AIzaSyD3KWHm1W5EiDyTjELShRAGAogeOjRLozk"
        },
        {
          "current_key": "AIzaSyCLXKRIoqMu6NiuZTnzIMvuo3R-B3-potI"
        }
      ],
      "services": {
        "appinvite_service": {
          "other_platform_oauth_client": [
            {
              "client_id": "298032037028-78mcpca19bn5tihsprpk02a266rbtlm0.apps.googleusercontent.com",
              "client_type": 3
            },
            {
              "client_id": "298032037028-21hfsr9jkd6859e3j7nq0jqnd5e8fl11.apps.googleusercontent.com",
              "client_type": 2,
              "ios_info": {
                "bundle_id": "com.taxidr.ios"
              }
            }
          ]
        }
      }
    },
    {
      "client_info": {
        "mobilesdk_app_id": "1:298032037028:android:579c480fb6a96f7de9fa31",
        "android_client_info": {
          "package_name": "com.keralacabs.updated.driver"
        }
      },
      "oauth_client": [
        {
          "client_id": "298032037028-3unosbjiip99qu6uqqq0rg0kmj159d3t.apps.googleusercontent.com",
          "client_type": 1,
          "android_info": {
            "package_name": "com.keralacabs.updated.driver",
            "certificate_hash": "38f55d85655b5a74a8f0cf56642c725eb4e65384"
          }
        },
        {
          "client_id": "298032037028-uh0qifukemqe87n0ji8jj6ce07t510fj.apps.googleusercontent.com",
          "client_type": 3
        }
      ],
      "api_key": [
        {
          "current_key": "AIzaSyBuNUkxkA-MADNP2Rw7zr2DGm1LhlvRAJ0"
        },
        {
          "current_key": "AIzaSyD3KWHm1W5EiDyTjELShRAGAogeOjRLozk"
        },
        {
          "current_key": "AIzaSyCLXKRIoqMu6NiuZTnzIMvuo3R-B3-potI"
        }
      ],
      "services": {
        "appinvite_service": {
          "other_platform_oauth_client": [
            {
              "client_id": "298032037028-78mcpca19bn5tihsprpk02a266rbtlm0.apps.googleusercontent.com",
              "client_type": 3
            },
            {
              "client_id": "298032037028-21hfsr9jkd6859e3j7nq0jqnd5e8fl11.apps.googleusercontent.com",
              "client_type": 2,
              "ios_info": {
                "bundle_id": "com.taxidr.ios"
              }
            }
          ]
        }
      }
    },
    {
      "client_info": {
        "mobilesdk_app_id": "1:298032037028:android:70685f6f1d886135e9fa31",
        "android_client_info": {
          "package_name": "com.keralacabs.updated.user"
        }
      },
      "oauth_client": [
        {
          "client_id": "298032037028-uh0qifukemqe87n0ji8jj6ce07t510fj.apps.googleusercontent.com",
          "client_type": 3
        }
      ],
      "api_key": [
        {
          "current_key": "AIzaSyBuNUkxkA-MADNP2Rw7zr2DGm1LhlvRAJ0"
        },
        {
          "current_key": "AIzaSyD3KWHm1W5EiDyTjELShRAGAogeOjRLozk"
        },
        {
          "current_key": "AIzaSyCLXKRIoqMu6NiuZTnzIMvuo3R-B3-potI"
        }
      ],
      "services": {
        "appinvite_service": {
          "other_platform_oauth_client": [
            {
              "client_id": "298032037028-78mcpca19bn5tihsprpk02a266rbtlm0.apps.googleusercontent.com",
              "client_type": 3
            },
            {
              "client_id": "298032037028-21hfsr9jkd6859e3j7nq0jqnd5e8fl11.apps.googleusercontent.com",
              "client_type": 2,
              "ios_info": {
                "bundle_id": "com.taxidr.ios"
              }
            }
          ]
        }
      }
    },
    {
      "client_info": {
        "mobilesdk_app_id": "1:298032037028:android:59ca34591aac35a3e9fa31",
        "android_client_info": {
          "package_name": "com.mongokerala.taxi.newuser"
        }
      },
      "oauth_client": [
        {
          "client_id": "298032037028-75900hd7lebcp6m78d4j1tga6rec5als.apps.googleusercontent.com",
          "client_type": 1,
          "android_info": {
            "package_name": "com.mongokerala.taxi.newuser",
            "certificate_hash": "38f55d85655b5a74a8f0cf56642c725eb4e65384"
          }
        },
        {
          "client_id": "298032037028-uh0qifukemqe87n0ji8jj6ce07t510fj.apps.googleusercontent.com",
          "client_type": 3
        }
      ],
      "api_key": [
        {
          "current_key": "AIzaSyBuNUkxkA-MADNP2Rw7zr2DGm1LhlvRAJ0"
        },
        {
          "current_key": "AIzaSyD3KWHm1W5EiDyTjELShRAGAogeOjRLozk"
        },
        {
          "current_key": "AIzaSyCLXKRIoqMu6NiuZTnzIMvuo3R-B3-potI"
        }
      ],
      "services": {
        "appinvite_service": {
          "other_platform_oauth_client": [
            {
              "client_id": "298032037028-78mcpca19bn5tihsprpk02a266rbtlm0.apps.googleusercontent.com",
              "client_type": 3
            },
            {
              "client_id": "298032037028-21hfsr9jkd6859e3j7nq0jqnd5e8fl11.apps.googleusercontent.com",
              "client_type": 2,
              "ios_info": {
                "bundle_id": "com.taxidr.ios"
              }
            }
          ]
        }
      }
    },
    {
      "client_info": {
        "mobilesdk_app_id": "1:298032037028:android:552319079e251b6d",
        "android_client_info": {
          "package_name": "com.taxi.deal.calltaxi"
        }
      },
      "oauth_client": [
        {
          "client_id": "298032037028-jfs9hmiknqd3togplvlioisk52t1sfu1.apps.googleusercontent.com",
          "client_type": 1,
          "android_info": {
            "package_name": "com.taxi.deal.calltaxi",
            "certificate_hash": "40cf191b4bbd55750b96daf198b7686ac47bc00f"
          }
        },
        {
          "client_id": "298032037028-uh0qifukemqe87n0ji8jj6ce07t510fj.apps.googleusercontent.com",
          "client_type": 3
        }
      ],
      "api_key": [
        {
          "current_key": "AIzaSyBuNUkxkA-MADNP2Rw7zr2DGm1LhlvRAJ0"
        },
        {
          "current_key": "AIzaSyD3KWHm1W5EiDyTjELShRAGAogeOjRLozk"
        },
        {
          "current_key": "AIzaSyCLXKRIoqMu6NiuZTnzIMvuo3R-B3-potI"
        }
      ],
      "services": {
        "appinvite_service": {
          "other_platform_oauth_client": [
            {
              "client_id": "298032037028-78mcpca19bn5tihsprpk02a266rbtlm0.apps.googleusercontent.com",
              "client_type": 3
            },
            {
              "client_id": "298032037028-21hfsr9jkd6859e3j7nq0jqnd5e8fl11.apps.googleusercontent.com",
              "client_type": 2,
              "ios_info": {
                "bundle_id": "com.taxidr.ios"
              }
            }
          ]
        }
      }
    },
    {
      "client_info": {
        "mobilesdk_app_id": "1:298032037028:android:92977763d1fc09d9",
        "android_client_info": {
          "package_name": "com.taxi.deals.newuser"
        }
      },
      "oauth_client": [
        {
          "client_id": "298032037028-si7306eog7b7f0o2oa7cto47pleru086.apps.googleusercontent.com",
          "client_type": 1,
          "android_info": {
            "package_name": "com.taxi.deals.newuser",
            "certificate_hash": "b674a1b628d9c7a9b91d0a69794d39038a3cb00f"
          }
        },
        {
          "client_id": "298032037028-uh0qifukemqe87n0ji8jj6ce07t510fj.apps.googleusercontent.com",
          "client_type": 3
        }
      ],
      "api_key": [
        {
          "current_key": "AIzaSyBuNUkxkA-MADNP2Rw7zr2DGm1LhlvRAJ0"
        },
        {
          "current_key": "AIzaSyD3KWHm1W5EiDyTjELShRAGAogeOjRLozk"
        },
        {
          "current_key": "AIzaSyCLXKRIoqMu6NiuZTnzIMvuo3R-B3-potI"
        }
      ],
      "services": {
        "appinvite_service": {
          "other_platform_oauth_client": [
            {
              "client_id": "298032037028-78mcpca19bn5tihsprpk02a266rbtlm0.apps.googleusercontent.com",
              "client_type": 3
            },
            {
              "client_id": "298032037028-21hfsr9jkd6859e3j7nq0jqnd5e8fl11.apps.googleusercontent.com",
              "client_type": 2,
              "ios_info": {
                "bundle_id": "com.taxidr.ios"
              }
            }
          ]
        }
      }
    },
    {
      "client_info": {
        "mobilesdk_app_id": "1:298032037028:android:ee0b47a2c5c716ace9fa31",
        "android_client_info": {
          "package_name": "com.taxideals.updated.driver"
        }
      },
      "oauth_client": [
        {
          "client_id": "298032037028-j5137c4s733iisoa5a64k0f0fie3bu9i.apps.googleusercontent.com",
          "client_type": 1,
          "android_info": {
            "package_name": "com.taxideals.updated.driver",
            "certificate_hash": "b674a1b628d9c7a9b91d0a69794d39038a3cb00f"
          }
        },
        {
          "client_id": "298032037028-uh0qifukemqe87n0ji8jj6ce07t510fj.apps.googleusercontent.com",
          "client_type": 3
        }
      ],
      "api_key": [
        {
          "current_key": "AIzaSyBuNUkxkA-MADNP2Rw7zr2DGm1LhlvRAJ0"
        },
        {
          "current_key": "AIzaSyD3KWHm1W5EiDyTjELShRAGAogeOjRLozk"
        },
        {
          "current_key": "AIzaSyCLXKRIoqMu6NiuZTnzIMvuo3R-B3-potI"
        }
      ],
      "services": {
        "appinvite_service": {
          "other_platform_oauth_client": [
            {
              "client_id": "298032037028-78mcpca19bn5tihsprpk02a266rbtlm0.apps.googleusercontent.com",
              "client_type": 3
            },
            {
              "client_id": "298032037028-21hfsr9jkd6859e3j7nq0jqnd5e8fl11.apps.googleusercontent.com",
              "client_type": 2,
              "ios_info": {
                "bundle_id": "com.taxidr.ios"
              }
            }
          ]
        }
      }
    }
  ],
  "configuration_version": "1"
}